INDEX VERSION 1.129+E:\Study\ITSS standard\Workplace\.metadata\.plugins\org.eclipse.jdt.core
3119455041.index
1004716384.index
1847969816.index
2167310551.index
375126478.index
1577298474.index
1540700031.index
3681335767.index
401360923.index
804087126.index
3018859241.index
2927524569.index
3934620599.index
486699731.index
4025271205.index
245674652.index
3097807594.index
188619105.index
3172068124.index
980109811.index
2831536327.index
2017505986.index
3256285438.index
4166838873.index
2720379927.index
2046427587.index
1434660724.index
1904741536.index
1840496343.index
3878457715.index
2312443017.index
2316884229.index
3886259753.index
1583927216.index
