<?xml version="1.0" encoding="UTF-8"?>
<session version="1.0">
<refactoring comment="Delete resource &apos;Reminder&apos;" deleteContents="false" description="Delete resource &apos;Reminder&apos;" element1="/Reminder" flags="7" id="org.eclipse.ltk.core.refactoring.delete.resources" resources="1" stamp="1476842927176"/>
</session>